Preparing trait databases
…
    return(check)
}

Check Weissman et al. database

Reduce(check_matches(weissman, "pathways"), f = rbind)
#> # A tibble: 2 × 2
#>   query               ref                
#>   <chr>               <chr>              
#> 1 elastin_degradation plastic_degradation
#> 2 elastin_degradation gelatin_degradation
Reduce(check_matches(weissman, "substrate"), f = rbind)
#> # A tibble: 55 × 2
#>    query    ref      
#>    <chr>    <chr>    
#>  1 sucrose  fucose   
#>  2 butanol  2-butanol
#>  3 butanol  1-butanol
#>  4 ethanol  methanol 
#>  5 glucose  fucose   
#>  6 mannose  maltose  
#>  7 fructose fucose   
#>  8 lactose  lactate  
#>  9 lactose  galactose
#> 10 lactose  maltose  
#> # … with 45 more rows
…
